## Interface: 20400
## Title: Carina Chut BC
## Notes: Addon Carina
## Author: Alizia
## Version: 0.0.1 (Beta)
## SavedVariables: CChut_DebugLog

CarinaChutBC.lua
CarinaChutFilterListBC.lua
CarinaChutBC.xml